…
| **Assets** | **Weight** |
|------------|------------|
| MU         | 47.52%     |
| BAC        | 20.63%     |
| FB         | 14.45%     |
| GOOG       | 8.29%      |
| APPL       | 5.55%      |
| PDD        | 3.55%      |

First, let’s look at the historical prices of each stock as of 2014 in a
table with tibble format, which is very useful for working with
financial data.

    #> # A tibble: 13,494 x 8
    #>    symbol date        open  high   low close   volume adjusted
    #>    <chr>  <date>     <dbl> <dbl> <dbl> <dbl>    <dbl>    <dbl>
    #>  1 MU     2011-01-03  8.14  8.48  8.14  8.28 43343100     8.28
    #>  2 MU     2011-01-04  8.38  8.58  8.36  8.44 44645900     8.44
    #>  3 MU     2011-01-05  8.41  8.78  8.4   8.54 38533500     8.54
    #>  4 MU     2011-01-06  8.67  8.7   8.55  8.58 25273800     8.58
    #>  5 MU     2011-01-07  8.56  8.7   8.45  8.65 24517000     8.65
    #>  6 MU     2011-01-10  8.68  8.68  8.39  8.55 30493200     8.55
    #>  7 MU     2011-01-11  8.62  8.73  8.48  8.72 27511400     8.72
    #>  8 MU     2011-01-12  8.85  9.5   8.84  9.34 92085800     9.34
    #>  9 MU     2011-01-13  9.79  9.87  9.58  9.63 75174700     9.63
    #> 10 MU     2011-01-14  9.73  9.86  9.65  9.71 40679500     9.71
    #> # … with 13,484 more rows

------------------------------------------------------------------------

## Individual returns and cumulative returns

We will calculate the individual returns per asset.

    #> # A tibble: 13,494 x 5
    #> # Groups:   symbol [6]
    #>    symbol date            Ret   wts wt_return
    #>    <chr>  <date>        <dbl> <dbl>     <dbl>
    #>  1 MU     2011-01-03  0       0.475   0      
    #>  2 MU     2011-01-04  0.0193  0.475   0.00918
    #>  3 MU     2011-01-05  0.0118  0.475   0.00563
    #>  4 MU     2011-01-06  0.00468 0.475   0.00223
    #>  5 MU     2011-01-07  0.00816 0.475   0.00388
    #>  6 MU     2011-01-10 -0.0116  0.475  -0.00549
    #>  7 MU     2011-01-11  0.0199  0.475   0.00945
    #>  8 MU     2011-01-12  0.0711  0.475   0.0338 
    #>  9 MU     2011-01-13  0.0310  0.475   0.0148 
    #> 10 MU     2011-01-14  0.00831 0.475   0.00395
    #> # … with 13,484 more rows

We will work with the accumulated returns per asset, in this case 6
assets, the table of the accumulated returns for the 6 assets that were
initially chosen is as follows.

    #> # A tibble: 2,624 x 3
    #>    date       port_ret    cr
    #>    <date>        <dbl> <dbl>
    #>  1 2011-01-03  0        1   
    #>  2 2011-01-04  0.00989  1.01
    #>  3 2011-01-05  0.0108   1.02
    #>  4 2011-01-06  0.00193  1.02
    #>  5 2011-01-07  0.00195  1.02
    #>  6 2011-01-10 -0.00258  1.02
    #>  7 2011-01-11  0.0137   1.04
    #>  8 2011-01-12  0.0386   1.08
    #>  9 2011-01-13  0.0119   1.09
    #> 10 2011-01-14  0.0121   1.10
    #> # … with 2,614 more rows
…
